Analysis
…
Analysis

Václav Ocelík

2020-09-15

library(tidyverse)
library(kableExtra)
theme_set(theme_classic())

df_outliers_control_group <- do.call(rbind, lapply(Sys.glob("../Control Group/Data/outliers/*.csv"), read_csv)) # make sure no other .csv files in target.
df_outliers_control_group

## # A tibble: 208 x 2
##     S.D. Counts
##    <dbl>  <dbl>
##  1   0.5    287
##  2   0.6    254
##  3   0.7    254
##  4   0.8    250
##  5   0.9    218
##  6   1      204
##  7   1.1    184
##  8   1.2    173
##  9   1.3    181
## 10   1.4    143
## # … with 198 more rows
…
